{
  "servers": {},

  "website": {
    "title": "Panel Intersect",
    "copyright": "Copyright for <a href='https://www.freemmorpgmaker.com/' target='_blank'>Intersect Engine</a> & <a href='https://www.ascensiongamedev.com/' target='_blank'>Ascension Game Dev</a> | Propriety owner <a href='https://www.ascensiongamedev.com/profile/1-jcsnider/' target='_blank'>Jcsnider</a> & <a href='https://www.ascensiongamedev.com/profile/2-kibbelz/' target='_blank'>Kibbelz</a> | Coded & Designed by <a href='https://nichos.fr/' target='_blank'>Nichos</a>",
    "path": "/",
    "display_date": "Y-n-j",
    "recaptcha_key_site":  "",
    "recaptcha_key_secret": "",
    "refresh_cache": 7200,
    "debug": false,
    "language": "en-us",
    "composer": {
      "linfo": false
    }
  },
  "version": "0_9"
}